<svg width="16" height="9" viewBox="0 0 16 9" fill="none" xmlns="http://www.w3.org/2000/svg">
<path d="M1.37305 0.314453L0.564453 1.12305L7.5957 8.1543L8 8.54102L8.4043 8.1543L15.4355 1.12305L14.627 0.314453L8 6.94141L1.37305 0.314453Z" fill="#1C1D21"/>
</svg>
