<svg width="20" height="18" viewBox="0 0 20 18" fill="none" xmlns="http://www.w3.org/2000/svg">
<path d="M10 0.25C9.3125 0.25 8.70312 0.460938 8.17188 0.882812C7.64062 1.30469 7.28906 1.84375 7.11719 2.5H0.25V17.5H19.75V2.5H12.8828C12.7109 1.84375 12.3594 1.30469 11.8281 0.882812C11.2969 0.460938 10.6875 0.25 10 0.25ZM10 1.75C10.2969 1.75 10.5547 1.82031 10.7734 1.96094C11.0078 2.08594 11.1875 2.26562 11.3125 2.5H8.6875C8.8125 2.26562 8.98438 2.08594 9.20312 1.96094C9.4375 1.82031 9.70312 1.75 10 1.75ZM1.75 4H18.25V10.75H1.75V4ZM10 8.5C9.79688 8.5 9.61719 8.57812 9.46094 8.73438C9.32031 8.875 9.25 9.04688 9.25 9.25C9.25 9.45312 9.32031 9.63281 9.46094 9.78906C9.61719 9.92969 9.79688 10 10 10C10.2031 10 10.375 9.92969 10.5156 9.78906C10.6719 9.63281 10.75 9.45312 10.75 9.25C10.75 9.04688 10.6719 8.875 10.5156 8.73438C10.375 8.57812 10.2031 8.5 10 8.5ZM1.75 12.25H18.25V16H1.75V12.25Z" fill="#5E81F4"/>
</svg>
