<svg width="23" height="19" viewBox="0 0 23 19" fill="none" xmlns="http://www.w3.org/2000/svg">
<path d="M16.423 18.0422C15.8646 18.0417 15.3741 17.7203 15.22 17.2543L11.4105 5.67934L7.60092 17.2543C7.32578 17.8318 6.56356 18.1064 5.89839 17.8675C5.57861 17.7526 5.32461 17.532 5.19233 17.2543L0.179908 2.01845C-0.0299118 1.44568 0.334748 0.833726 0.994283 0.651508C1.65382 0.469289 2.35847 0.785978 2.56829 1.35875C2.57569 1.37895 2.58238 1.39936 2.58849 1.41986L6.39792 12.9926L10.2075 1.41772C10.4826 0.840153 11.2448 0.565602 11.91 0.804546C12.2298 0.919428 12.4838 1.14001 12.616 1.41772L16.423 12.9927L20.2325 1.41997C20.4129 0.847193 21.0938 0.509794 21.7533 0.666403C21.7627 0.668648 21.772 0.670995 21.7814 0.673341C22.4463 0.838827 22.8311 1.44088 22.641 2.01845L17.6285 17.2543C17.4741 17.7211 16.9822 18.0426 16.423 18.0422Z" fill="#5E81F4"/>
</svg>
