<svg width="17" height="18" viewBox="0 0 17 18" fill="none" xmlns="http://www.w3.org/2000/svg">
<g clip-path="url(#clip0)">
<path d="M7.06178 9.15743H5.42966C5.413 9.15743 5.40468 9.16592 5.39635 9.18289C5.35471 9.9382 5.21315 10.7444 5.0133 11.4064C5.0133 11.4149 5.0133 11.4233 5.02163 11.4318C5.02995 11.4403 5.03828 11.4403 5.04661 11.4403H5.60453C5.62118 11.4403 5.62951 11.4318 5.62951 11.4233C5.78773 10.9142 5.91263 10.2522 5.9626 9.69209H6.49554V11.4149C6.49554 11.4318 6.51219 11.4488 6.52884 11.4488H7.06178C7.07844 11.4488 7.09509 11.4318 7.09509 11.4149V9.18289C7.09509 9.16592 7.07844 9.15743 7.06178 9.15743ZM13.965 9.15743H13.4321C13.4154 9.15743 13.3988 9.17441 13.3988 9.19138V10.9142C13.2822 10.9481 13.1656 10.9651 13.0324 10.9651C12.6826 10.9651 12.5993 10.8547 12.5993 10.3795V9.19138C12.5993 9.17441 12.5827 9.15743 12.566 9.15743H12.0414C12.0248 9.15743 12.0081 9.17441 12.0081 9.19138V10.4389C12.0081 11.2197 12.2663 11.5167 12.9241 11.5167C13.2988 11.5167 13.7235 11.4149 13.9733 11.3215C13.9817 11.313 13.99 11.3045 13.99 11.296V9.19138C13.9983 9.16592 13.9817 9.15743 13.965 9.15743ZM2.67337 9.15743H2.1321C2.11545 9.15743 2.10712 9.16592 2.10712 9.18289C2.02385 9.52236 1.84898 10.0994 1.61582 10.702L1.07455 9.18289C1.06622 9.17441 1.0579 9.16592 1.04957 9.16592H0.499977C0.49165 9.16592 0.483323 9.17441 0.474995 9.18289C0.466668 9.19138 0.466668 9.19987 0.474995 9.20835L1.29106 11.4828C1.20779 11.661 1.13284 11.8052 1.0579 11.941C0.999607 12.0429 0.949644 12.1447 0.899681 12.2465C0.891354 12.255 0.891354 12.2635 0.899681 12.272C0.908008 12.2805 0.916335 12.289 0.924662 12.289H1.51589C1.52422 12.289 1.54087 12.2805 1.54087 12.272C1.6408 12.0768 1.76571 11.8052 1.88229 11.5252C2.23203 10.6935 2.50682 9.91274 2.715 9.19987C2.715 9.19138 2.715 9.18289 2.70668 9.17441C2.69002 9.15743 2.68169 9.15743 2.67337 9.15743ZM4.6136 10.9142C4.6136 10.9057 4.60527 10.8972 4.59694 10.8972H4.57196C4.43873 10.9481 4.19724 10.982 4.03069 10.982C3.65597 10.982 3.4811 10.8802 3.4811 10.3031C3.4811 9.83636 3.53939 9.62419 4.03069 9.62419C4.17226 9.62419 4.29716 9.64117 4.46371 9.69209C4.48036 9.69209 4.48869 9.69209 4.49702 9.67511C4.55531 9.5563 4.63025 9.41203 4.71352 9.23381V9.20835C4.71352 9.19987 4.70519 9.19138 4.69687 9.19138C4.48036 9.12349 4.22222 9.08105 3.98906 9.08105C3.21463 9.08105 2.86489 9.45446 2.86489 10.2946C2.86489 11.1433 3.21463 11.5252 3.98906 11.5252C4.18058 11.5252 4.57196 11.4828 4.75516 11.4064C4.77181 11.3979 4.78014 11.3809 4.77181 11.3639L4.6136 10.9142ZM9.68484 9.15743H9.14357C9.12692 9.15743 9.11859 9.16592 9.11859 9.18289C9.03532 9.53084 8.86045 10.0994 8.62729 10.702L8.08602 9.18289C8.0777 9.17441 8.06937 9.16592 8.06104 9.16592H7.51145C7.50312 9.16592 7.4948 9.17441 7.48647 9.18289C7.47814 9.19138 7.47814 9.19987 7.48647 9.20835L8.30253 11.4828C8.21926 11.661 8.14431 11.8052 8.06937 11.941C8.01108 12.0429 7.96112 12.1447 7.91115 12.255C7.90283 12.2635 7.90283 12.272 7.91115 12.2805C7.91948 12.289 7.92781 12.2975 7.93613 12.2975H8.52736C8.53569 12.2975 8.55235 12.289 8.55235 12.2805C8.65227 12.0853 8.77718 11.8137 8.89376 11.5337C9.23517 10.702 9.5183 9.92122 9.72648 9.20835C9.72648 9.19987 9.72648 9.19138 9.71815 9.18289C9.70149 9.15743 9.69317 9.15743 9.68484 9.15743ZM11.6834 9.15743H10.1095C10.0929 9.15743 10.0762 9.17441 10.0762 9.19138V11.4233C10.0762 11.4403 10.0929 11.4573 10.1095 11.4573H10.6425C10.6591 11.4573 10.6758 11.4403 10.6758 11.4233V9.70057H11.5002C11.5085 9.70057 11.5251 9.69209 11.5251 9.6836C11.5918 9.53084 11.6501 9.3696 11.7167 9.20835V9.18289C11.7 9.15743 11.6917 9.15743 11.6834 9.15743Z" fill="#EF4058"/>
<path d="M3.30441 5.72889C2.53831 5.72889 2.23853 6.06835 2.23853 6.92549C2.23853 7.79961 2.53831 8.13907 3.30441 8.13907C4.07883 8.13907 4.37861 7.79961 4.37861 6.92549C4.37861 6.05986 4.07883 5.72889 3.30441 5.72889ZM3.30441 7.63836C2.95467 7.63836 2.84641 7.54501 2.84641 6.93398C2.84641 6.289 2.96299 6.22959 3.30441 6.22959C3.65415 6.22959 3.77073 6.289 3.77073 6.93398C3.77073 7.54501 3.66248 7.63836 3.30441 7.63836ZM6.51037 7.54501C6.51037 7.53652 6.50204 7.52804 6.49371 7.52804H6.46873C6.33549 7.57896 6.09401 7.6129 5.92746 7.6129C5.55274 7.6129 5.37787 7.51106 5.37787 6.93398C5.37787 6.46722 5.43616 6.25505 5.92746 6.25505C6.06903 6.25505 6.19393 6.27203 6.36048 6.32295C6.37713 6.32295 6.38546 6.32295 6.39378 6.30597C6.45208 6.18716 6.52702 6.04289 6.61029 5.86467V5.83921C6.61029 5.83073 6.60196 5.82224 6.59364 5.82224C6.37713 5.75435 6.11899 5.71191 5.88583 5.71191C5.1114 5.71191 4.76166 6.08532 4.76166 6.92549C4.76166 7.77415 5.1114 8.15604 5.88583 8.15604C6.07735 8.15604 6.46873 8.11361 6.65193 8.03723C6.66858 8.02874 6.67691 8.01177 6.66858 7.9948L6.51037 7.54501ZM2.07199 5.78829H0.498152C0.481498 5.78829 0.464844 5.80527 0.464844 5.82224V8.05421C0.464844 8.07118 0.481498 8.08815 0.498152 8.08815H1.03109C1.04775 8.08815 1.0644 8.07118 1.0644 8.05421V6.32295H1.88046C1.88879 6.32295 1.90544 6.31446 1.90544 6.30597C1.97206 6.15322 2.03035 5.99197 2.09697 5.83073V5.80527C2.08864 5.79678 2.08031 5.78829 2.07199 5.78829Z" fill="#1466AC"/>
<path d="M16.4527 11.2108V11.1768C16.4527 11.1598 16.4527 11.1344 16.461 11.1174C16.486 10.8034 16.5026 10.4215 16.5193 9.9802V9.94625C16.5276 9.64922 16.5359 9.32673 16.5359 8.99576C16.5359 8.66478 16.5276 8.34229 16.5193 8.04526V8.01132C16.5026 7.5785 16.486 7.18812 16.461 6.87412C16.461 6.85714 16.461 6.83168 16.4527 6.81471V6.78076C16.4527 6.74682 16.4443 6.72136 16.4443 6.68741V6.65347C16.4194 6.32249 16.4027 6.11881 16.3944 6.10184C16.3944 6.06789 16.386 6.03395 16.386 6.00849V5.98303C16.3777 5.92362 16.3694 5.8727 16.3527 5.8133C16.3527 5.80481 16.3527 5.79632 16.3444 5.78784C16.2028 5.10042 15.8281 4.34512 15.3618 3.77652C15.1786 3.55587 14.9871 3.36068 14.7872 3.20792C14.7706 3.19095 14.5374 3.02122 14.171 2.75813C13.7463 2.4611 13.1384 2.04526 12.4473 1.63791C11.2149 0.899576 10.124 0.381895 9.97413 0.322489C9.9658 0.322489 9.9658 0.314003 9.9658 0.314003C9.64104 0.169731 9.24967 0.0678925 8.82498 0.0254597C8.74171 0.0169731 8.65844 0.00848656 8.57517 0.00848656C8.49189 0 8.41695 0 8.34201 0H8.22543C7.65918 0.0169731 7.13457 0.118812 6.71821 0.314003C6.65992 0.339463 5.55241 0.857143 4.29501 1.61245L4.24504 1.63791C2.95433 2.41018 1.94675 3.17397 1.90511 3.20792C1.58868 3.44554 1.30555 3.75106 1.04741 4.14144C0.989123 4.22631 0.989123 4.44696 1.23894 4.44696H1.88013C2.15493 4.44696 2.22154 4.27723 2.52965 4.04809C2.87106 3.79349 3.54556 3.2843 4.77798 2.53748C5.66899 2.00283 6.5017 1.5785 6.90973 1.38331C6.91806 1.38331 6.92639 1.37482 6.93472 1.37482C6.93472 1.37482 6.94304 1.37482 6.94304 1.36634C6.94304 1.36634 6.95137 1.36634 6.95137 1.35785C6.9597 1.35785 6.96802 1.34936 6.96802 1.34936C6.97635 1.34936 6.98468 1.34088 6.99301 1.34088C7.09293 1.28996 7.15955 1.2645 7.15955 1.2645C7.44267 1.1372 7.84238 1.05233 8.26706 1.04385H8.4336C8.55851 1.04385 8.68342 1.05233 8.8 1.06931C9.05814 1.10325 9.2913 1.15417 9.48283 1.23904C9.49948 1.24752 9.52446 1.25601 9.54112 1.2645C9.54112 1.2645 9.54944 1.27298 9.57443 1.28147C9.76595 1.36634 10.7985 1.86704 11.9227 2.53748C12.5889 2.93635 13.1801 3.33522 13.5881 3.62376C13.9462 3.87836 14.1627 4.0396 14.171 4.04809C14.3292 4.1669 14.4874 4.33663 14.6373 4.52334C15.0121 5.01556 15.3202 5.686 15.3701 6.20368C15.3701 6.21216 15.3951 6.41584 15.4201 6.76379C15.4201 6.78925 15.4201 6.80622 15.4284 6.83168V6.8826C15.4284 6.91655 15.4367 6.94201 15.4367 6.97595V7.0099C15.4367 7.02687 15.4367 7.05233 15.4451 7.06931C15.4451 7.11174 15.4534 7.15417 15.4534 7.19661C15.4534 7.22207 15.4534 7.24752 15.4617 7.27298V7.28996C15.4617 7.3239 15.4617 7.34936 15.4701 7.38331V7.4512C15.495 7.8925 15.5117 8.41867 15.5117 8.9703C15.5117 9.52192 15.495 10.0481 15.4701 10.4894V10.5573C15.4701 10.5912 15.4701 10.6167 15.4617 10.6506V10.6676C15.4617 10.6931 15.4617 10.7185 15.4534 10.744C15.4534 10.7864 15.4451 10.8289 15.4451 10.8713C15.4451 10.8967 15.4451 10.9137 15.4367 10.9307V10.9646C15.4367 10.9986 15.4284 11.024 15.4284 11.058V11.1089C15.4284 11.1344 15.4284 11.1598 15.4201 11.1768C15.3951 11.5248 15.3701 11.7369 15.3701 11.7369C15.3202 12.2546 15.0121 12.925 14.6373 13.4173C14.4874 13.6124 14.3292 13.7737 14.171 13.8925C14.1627 13.8925 13.9462 14.0622 13.5881 14.3168C13.1801 14.6054 12.5805 15.0042 11.9227 15.4031C10.7985 16.082 9.75762 16.5743 9.57443 16.6591L9.54112 16.6761C9.52446 16.6846 9.49948 16.6931 9.48283 16.7016C9.2913 16.7779 9.05814 16.8373 8.8 16.8713C8.68342 16.8883 8.55851 16.8967 8.4336 16.8967H8.26706C7.84238 16.8883 7.44267 16.8119 7.15955 16.6761C7.15955 16.6761 7.10126 16.6506 6.99301 16.5997C6.98468 16.5912 6.96802 16.5912 6.9597 16.5827C6.95137 16.5743 6.94304 16.5743 6.93472 16.5658C6.92639 16.5658 6.92639 16.5573 6.91806 16.5573C6.90973 16.5573 6.90141 16.5488 6.89308 16.5488C6.88475 16.5403 6.87643 16.5403 6.85977 16.5318H6.85144C6.42676 16.3621 5.62735 15.9547 4.77798 15.4455C3.53723 14.7072 2.87106 14.1895 2.52965 13.9349C2.22154 13.7058 2.15493 13.5361 1.88013 13.5361H1.23894C0.989123 13.5361 0.989123 13.7567 1.04741 13.8416C1.30555 14.232 1.58868 14.5375 1.90511 14.7751C1.94675 14.8091 2.96266 15.5728 4.24504 16.3451C4.31166 16.3876 4.37828 16.43 4.45322 16.4639C5.64401 17.1598 6.66825 17.6351 6.72654 17.669C7.13457 17.8557 7.66751 17.9661 8.23375 17.983H8.35033C8.42528 17.983 8.50022 17.983 8.57517 17.9745C8.65844 17.9745 8.74171 17.9661 8.82498 17.9576C9.24967 17.9151 9.64937 17.8133 9.9658 17.669C9.9658 17.669 9.97413 17.669 9.97413 17.6605C10.1157 17.5926 11.2149 17.075 12.439 16.3451C13.1301 15.9293 13.738 15.5219 14.1627 15.2249C14.5291 14.9618 14.7622 14.7921 14.7789 14.7751C14.9788 14.6223 15.1703 14.4272 15.3535 14.2065C15.8198 13.6379 16.1945 12.8826 16.3361 12.1952C16.3361 12.1867 16.3361 12.1782 16.3444 12.1697C16.3527 12.1103 16.3694 12.0509 16.3777 12V11.9745C16.386 11.9406 16.386 11.9066 16.386 11.8812C16.386 11.8642 16.411 11.6605 16.436 11.3296V11.2956C16.4527 11.2702 16.4527 11.2447 16.4527 11.2108Z" fill="url(#paint0_linear)"/>
</g>
<defs>
<linearGradient id="paint0_linear" x1="8.77552" y1="0" x2="8.77552" y2="17.9986" gradientUnits="userSpaceOnUse">
<stop offset="0.398" stop-color="#1466AC"/>
<stop offset="0.659" stop-color="#EF4058"/>
</linearGradient>
<clipPath id="clip0">
<rect width="16.0714" height="18" fill="white" transform="translate(0.464844)"/>
</clipPath>
</defs>
</svg>
