<svg width="14" height="8" viewBox="0 0 14 8" fill="none" xmlns="http://www.w3.org/2000/svg">
<path d="M1.10938 0.390625L0.390625 1.10938L6.64062 7.35938L7 7.70312L7.35938 7.35938L13.6094 1.10938L12.8906 0.390625L7 6.28125L1.10938 0.390625Z" fill="#5E81F4"/>
</svg>
