<svg width="18" height="14" viewBox="0 0 18 14" fill="none" xmlns="http://www.w3.org/2000/svg">
<path d="M10.8691 0.412109L9.88086 1.40039L14.543 6.0625H0.75V7.4375H14.543L9.88086 12.0996L10.8691 13.0879L16.7129 7.24414L17.1855 6.75L16.7129 6.25586L10.8691 0.412109Z" fill="#5E81F4"/>
</svg>
